<svg xmlns="http://www.w3.org/2000/svg" width="68" height="74" viewBox="0 0 68 74">
  <g fill="none">
    <polygon fill="#27C79D" points=".2 58.4 67.8 58.4 67.8 73.3 .2 73.3"/>
    <path fill="#000" d="M61.5,68.4 C61.3,68.4 61.1,68.3 61,68 L53.2,42.3 C53.1,42 53.3,41.8 53.5,41.7 C53.8,41.6 54,41.8 54.1,42 L61.9,67.7 C62,68 61.8,68.2 61.6,68.3 C61.6,68.4 61.5,68.4 61.5,68.4 Z"/>
    <polygon fill="#27B1F1" points="49.7 68.7 5.3 68.7 17.3 29.3 61.7 29.3"/>
    <polygon fill="#FFF" points="36.6 65.9 26.3 32.2 22.2 32.2 32.4 65.9"/>
    <polygon fill="#FFF" points="43.9 65.9 33.6 32.2 29.5 32.2 39.7 65.9"/>
    <polygon fill="#FFF" points="55.7 40.9 53.1 32.2 48.9 32.2 53.6 47.7"/>
    <path fill="#000" d="M12.2 65.9C12.2 65.9 12.1 65.9 12.1 65.9 11.8 65.8 11.7 65.5 11.8 65.3L21.8 32.5C21.9 32.2 22.2 32.1 22.4 32.2 22.7 32.3 22.8 32.6 22.7 32.8L12.7 65.6C12.6 65.7 12.4 65.9 12.2 65.9zM18.5 65.9C18.5 65.9 18.4 65.9 18.4 65.9 18.1 65.8 18 65.5 18.1 65.3L28.1 32.5C28.2 32.2 28.5 32.1 28.7 32.2 29 32.3 29.1 32.6 29 32.8L19 65.5C18.9 65.7 18.7 65.9 18.5 65.9zM24.9 65.9C24.9 65.9 24.8 65.9 24.8 65.9 24.5 65.8 24.4 65.5 24.5 65.3L34.5 32.5C34.6 32.2 34.9 32.1 35.1 32.2 35.4 32.3 35.5 32.6 35.4 32.8L25.4 65.6C25.3 65.7 25.1 65.9 24.9 65.9zM31.2 65.9C31.2 65.9 31.1 65.9 31.1 65.9 30.8 65.8 30.7 65.5 30.8 65.3L40.8 32.5C40.9 32.2 41.2 32.1 41.4 32.2 41.7 32.3 41.8 32.6 41.7 32.8L31.7 65.6C31.7 65.7 31.5 65.9 31.2 65.9zM37.6 65.9C37.6 65.9 37.5 65.9 37.5 65.9 37.2 65.8 37.1 65.5 37.2 65.3L47.2 32.5C47.3 32.2 47.6 32.1 47.8 32.2 48.1 32.3 48.2 32.6 48.1 32.8L38.1 65.6C38 65.7 37.8 65.9 37.6 65.9zM43.9 65.9C43.9 65.9 43.8 65.9 43.8 65.9 43.5 65.8 43.4 65.5 43.5 65.3L53.5 32.5C53.6 32.2 53.9 32.1 54.1 32.2 54.4 32.3 54.5 32.6 54.4 32.8L44.4 65.6C44.4 65.7 44.2 65.9 43.9 65.9z"/>
    <path fill="#000" d="M56.9 37.3L17.3 37.3C17 37.3 16.8 37.1 16.8 36.8 16.8 36.5 17 36.3 17.3 36.3L56.9 36.3C57.2 36.3 57.4 36.5 57.4 36.8 57.4 37.1 57.2 37.3 56.9 37.3zM56.1 40.5L16.5 40.5C16.2 40.5 16 40.3 16 40 16 39.7 16.2 39.5 16.5 39.5L56.1 39.5C56.4 39.5 56.6 39.7 56.6 40 56.6 40.3 56.4 40.5 56.1 40.5zM53.4 48L13.8 48C13.5 48 13.3 47.8 13.3 47.5 13.3 47.2 13.5 47 13.8 47L53.4 47C53.7 47 53.9 47.2 53.9 47.5 53.9 47.8 53.7 48 53.4 48zM52.6 51.2L13 51.2C12.7 51.2 12.5 51 12.5 50.7 12.5 50.4 12.7 50.2 13 50.2L52.6 50.2C52.9 50.2 53.1 50.4 53.1 50.7 53.1 51 52.8 51.2 52.6 51.2zM50.5 58.5L10.9 58.5C10.6 58.5 10.4 58.3 10.4 58 10.4 57.7 10.6 57.5 10.9 57.5L50.5 57.5C50.8 57.5 51 57.7 51 58 51 58.3 50.8 58.5 50.5 58.5zM49.7 61.7L10.1 61.7C9.8 61.7 9.6 61.5 9.6 61.2 9.6 60.9 9.8 60.7 10.1 60.7L49.7 60.7C50 60.7 50.2 60.9 50.2 61.2 50.2 61.5 50 61.7 49.7 61.7z"/>
    <circle cx="12" cy="12.1" r="11.4" fill="#FC7769"/>
    <polygon fill="#000" points="61.7 29.3 49.6 69.1 52.2 69.1 64.1 29.3"/>
    <path fill="#000" d="M51.7,69.2 L5.6,69.2 C5.3,69.2 5.1,69 5.1,68.7 C5.1,68.4 5.3,68.2 5.6,68.2 L51.7,68.2 C52,68.2 52.2,68.4 52.2,68.7 C52.2,69 52,69.2 51.7,69.2 Z"/>
  </g>
</svg>
