<svg xmlns="http://www.w3.org/2000/svg" width="41" height="74" viewBox="0 0 41 74">
  <g fill="none">
    <rect width="20.5" height="10.8" x="14.8" y="62.4" fill="#FFF"/>
    <path fill="#000" d="M12.8,20.1 C12.5,20.1 12.3,19.9 12.3,19.6 L12.3,3.9 C12.3,3.6 12.5,3.4 12.8,3.4 C13.1,3.4 13.3,3.6 13.3,3.9 L13.3,19.6 C13.3,19.9 13,20.1 12.8,20.1 Z"/>
    <polygon fill="#000" points="17 56.9 33 56.9 33 62.1 17 62.1"/>
    <path fill="#000" d="M37.9,21.4 C37.6,21.4 37.4,21.2 37.4,20.9 L37.4,7.7 C37.4,7.4 37.6,7.2 37.9,7.2 C38.2,7.2 38.4,7.4 38.4,7.7 L38.4,20.9 C38.4,21.1 38.1,21.4 37.9,21.4 Z"/>
    <polygon fill="#27C79D" points="33 58.4 17 58.4 9.5 50.9 9.5 31.5 40.5 31.5 40.5 50.9"/>
    <rect width="6.5" height="11" x="26.2" y="18.5" fill="#27B1F1"/>
    <rect width="6.5" height="11" x="17.9" y="18.5" fill="#27B1F1"/>
    <rect width="6.5" height="11" x="9.5" y="18.5" fill="#27B1F1"/>
    <polygon fill="#27B1F1" points="7.2 50.3 .9 39.8 7.2 39.8"/>
    <polygon fill="#27B1F1" points="35.2 20.6 40.5 20.6 40.5 29.5 35.2 29.5"/>
    <polygon fill="#27B1F1" points="35.7 12.9 40 12.9 40 18.8 35.7 18.8"/>
    <polygon fill="#27B1F1" points="10.1 8.9 15.4 8.9 15.4 16.8 10.1 16.8"/>
    <path fill="#000" d="M37.9 35.1C37.6 35.1 37.4 34.9 37.4 34.6L37.4 25.8C37.4 25.5 37.6 25.3 37.9 25.3 38.2 25.3 38.4 25.5 38.4 25.8L38.4 34.6C38.4 34.9 38.1 35.1 37.9 35.1zM29.5 35.1C29.2 35.1 29 34.9 29 34.6L29 24.6C29 24.3 29.2 24.1 29.5 24.1 29.8 24.1 30 24.3 30 24.6L30 34.6C30 34.9 29.8 35.1 29.5 35.1zM12.8 35.1C12.5 35.1 12.3 34.9 12.3 34.6L12.3 24.6C12.3 24.3 12.5 24.1 12.8 24.1 13.1 24.1 13.3 24.3 13.3 24.6L13.3 34.6C13.3 34.9 13 35.1 12.8 35.1zM21.1 35.1C20.8 35.1 20.6 34.9 20.6 34.6L20.6 24.6C20.6 24.3 20.8 24.1 21.1 24.1 21.4 24.1 21.6 24.3 21.6 24.6L21.6 34.6C21.6 34.9 21.4 35.1 21.1 35.1zM12.9.7L12.7.7C11.6.7 10.7 1.6 10.7 2.7L10.7 8.8 15 8.8 15 2.8C14.9 1.6 14 .7 12.9.7zM38 6.7L37.8 6.7C36.9 6.7 36.1 7.5 36.1 8.4L36.1 12.9 39.6 12.9 39.6 8.4C39.6 7.4 38.9 6.7 38 6.7zM2.8 23.5L2.8 23.5C1.8 23.5.9 24.3.9 25.4L.9 38 7.2 38 7.2 31.6 4.5 24.8C4.2 24 3.5 23.5 2.8 23.5zM35.3 73.8L14.8 73.8C14.5 73.8 14.3 73.6 14.3 73.3L14.3 62.4C14.3 62.1 14.5 61.9 14.8 61.9L35.3 61.9C35.6 61.9 35.8 62.1 35.8 62.4L35.8 73.2C35.8 73.6 35.5 73.8 35.3 73.8zM15.3 72.8L34.8 72.8 34.8 63 15.3 63 15.3 72.8zM21.6 15.5L20.7 15.5C19.1 15.5 17.9 16.8 17.9 18.3L17.9 18.5 24.4 18.5 24.4 18.3C24.4 16.8 23.1 15.5 21.6 15.5zM29.9 15.5L29 15.5C27.4 15.5 26.2 16.8 26.2 18.3L26.2 18.5 32.7 18.5 32.7 18.3C32.8 16.8 31.5 15.5 29.9 15.5z"/>
  </g>
</svg>
