<?xml version="1.0" encoding="utf-8"?>
<!-- Generator: Adobe Illustrator 22.0.1, SVG Export Plug-In . SVG Version: 6.00 Build 0)  -->
<svg version="1.1" xmlns="http://www.w3.org/2000/svg" xmlns:xlink="http://www.w3.org/1999/xlink" x="0px" y="0px"
	 viewBox="0 0 250 250" style="enable-background:new 0 0 250 250;" xml:space="preserve">
<style type="text/css">
	.st0{fill:#FFFFFF;}
	.st1{fill:#FC7769;}
	.st2{fill:#27B1F1;}
	.st3{fill:#27C79D;}
	.st4{fill:#8ADAFF;}
	.st5{fill:none;stroke:#FFFFFF;stroke-linecap:round;stroke-linejoin:round;stroke-miterlimit:10;}
	.st6{fill:none;stroke:#FFFFFF;stroke-linejoin:round;stroke-miterlimit:10;stroke-dasharray:4;}
	.st7{fill:none;stroke:#000000;stroke-linejoin:round;stroke-miterlimit:10;}
	.st8{fill:#FFFFFF;stroke:#000000;stroke-linecap:round;stroke-linejoin:round;stroke-miterlimit:10;}
	.st9{fill:none;stroke:#000000;stroke-linecap:round;stroke-linejoin:round;stroke-miterlimit:10;}
	.st10{fill:#CFF0FF;}
</style>
<g id="Layer_1">
</g>
<g id="Layer_3">
</g>
<g id="Layer_2">
	<g>
		<g>
			<path class="st1" d="M211.1,89.8c0-27.8-23.2-50.1-51.2-48.8c-24.9,1.2-45.2,21.3-46.5,46.2c-1,19.7,9.7,37,25.7,45.7
				c6.1,3.3,9.8,9.7,9.8,16.7v7.8h26.6v-7.8c0-7.1,3.9-13.4,10.1-16.8C200.8,124.4,211.1,108.3,211.1,89.8z"/>
		</g>
		<g>
			<polygon class="st0" points="178.9,91.1 159.1,91.1 159.1,73.5 141.5,73.5 141.5,108.7 161.3,108.7 161.3,126.3 178.9,126.3 			
				"/>
		</g>
		<g>
			<polygon class="st3" points="219.1,208.5 219.1,173.3 201.5,173.3 201.5,190.9 183.9,190.9 183.9,208.5 			"/>
		</g>
		<g>
			<polygon class="st2" points="31.3,41 31.3,76.2 48.9,76.2 48.9,58.6 66.5,58.6 66.5,41 			"/>
		</g>
		<g>
			<path class="st2" d="M149,174.4v12.7c0,2.1,1.7,3.8,3.8,3.8h18.7c2.1,0,3.8-1.7,3.8-3.8v-12.7h12.5v-17.1h-51.2v17.1H149z"/>
		</g>
		<g>
			<g>
				<rect x="31.3" y="93.5" class="st0" width="91" height="115"/>
				<path d="M122.4,209h-91c-0.3,0-0.5-0.2-0.5-0.5v-115c0-0.3,0.2-0.5,0.5-0.5h91c0.3,0,0.5,0.2,0.5,0.5v115
					C122.9,208.8,122.6,209,122.4,209z M31.9,208h90V94h-90V208z"/>
			</g>
			<g>
				<polygon class="st3" points="84.8,85.2 84.8,76.2 67.6,76.2 67.6,85.2 50.6,85.2 50.6,102.4 101.8,102.4 101.8,85.2 				"/>
			</g>
			<g>
				<rect x="93.9" y="110.2" class="st3" width="17.2" height="17.2"/>
			</g>
			<g>
				<rect x="93.9" y="134" class="st3" width="17.2" height="17.2"/>
			</g>
			<g>
				<rect x="93.9" y="157.8" class="st1" width="17.2" height="17.2"/>
			</g>
			<g>
				<rect x="93.9" y="181.6" class="st1" width="17.2" height="17.2"/>
			</g>
			<g>
				<path d="M70.9,119H41.4c-0.3,0-0.5-0.2-0.5-0.5s0.2-0.5,0.5-0.5h29.5c0.3,0,0.5,0.2,0.5,0.5S71.1,119,70.9,119z"/>
			</g>
			<g>
				<path d="M84.8,115.2c0,0.6-0.1,1.1-0.3,1.5c-0.2,0.4-0.5,0.8-0.8,1.2s-0.7,0.7-1,1c-0.4,0.3-0.7,0.6-1,1
					c-0.3,0.3-0.6,0.7-0.8,1.1c-0.2,0.4-0.3,0.8-0.3,1.3H79c0-0.6,0.1-1.1,0.3-1.5s0.5-0.9,0.8-1.3c0.3-0.4,0.7-0.8,1-1.1
					c0.4-0.3,0.7-0.7,1-1s0.6-0.7,0.8-1c0.2-0.4,0.3-0.7,0.3-1.2c0-0.6-0.2-1.1-0.6-1.5c-0.4-0.4-1-0.5-1.7-0.5
					c-0.5,0-0.9,0.1-1.2,0.2s-0.6,0.3-0.9,0.6c-0.2,0.3-0.4,0.6-0.6,0.9c-0.1,0.3-0.2,0.7-0.3,1.2l-1.3-0.2c0.1-1.2,0.6-2.2,1.3-2.9
					s1.7-1.1,3-1.1c1.2,0,2.2,0.3,2.8,0.9C84.5,113.4,84.8,114.2,84.8,115.2z M81,126.3h-2v-2h2V126.3z"/>
			</g>
			<g>
				<path d="M70.9,141.6H41.4c-0.3,0-0.5-0.2-0.5-0.5s0.2-0.5,0.5-0.5h29.5c0.3,0,0.5,0.2,0.5,0.5S71.1,141.6,70.9,141.6z"/>
			</g>
			<g>
				<path d="M84.8,137.8c0,0.6-0.1,1.1-0.3,1.5c-0.2,0.4-0.5,0.8-0.8,1.2s-0.7,0.7-1,1c-0.4,0.3-0.7,0.6-1,1
					c-0.3,0.3-0.6,0.7-0.8,1.1c-0.2,0.4-0.3,0.8-0.3,1.3H79c0-0.6,0.1-1.1,0.3-1.5s0.5-0.9,0.8-1.3c0.3-0.4,0.7-0.8,1-1.1
					c0.4-0.3,0.7-0.7,1-1s0.6-0.7,0.8-1c0.2-0.4,0.3-0.7,0.3-1.2c0-0.6-0.2-1.1-0.6-1.5c-0.4-0.4-1-0.5-1.7-0.5
					c-0.5,0-0.9,0.1-1.2,0.2s-0.6,0.3-0.9,0.6c-0.2,0.3-0.4,0.6-0.6,0.9c-0.1,0.3-0.2,0.7-0.3,1.2l-1.3-0.2c0.1-1.2,0.6-2.2,1.3-2.9
					s1.7-1.1,3-1.1c1.2,0,2.2,0.3,2.8,0.9C84.5,136,84.8,136.8,84.8,137.8z M81,148.9h-2v-2h2V148.9z"/>
			</g>
			<g>
				<path d="M70.9,165.6H41.4c-0.3,0-0.5-0.2-0.5-0.5s0.2-0.5,0.5-0.5h29.5c0.3,0,0.5,0.2,0.5,0.5S71.1,165.6,70.9,165.6z"/>
			</g>
			<g>
				<path d="M84.8,161.7c0,0.6-0.1,1.1-0.3,1.5s-0.5,0.8-0.8,1.2c-0.3,0.4-0.7,0.7-1,1c-0.4,0.3-0.7,0.6-1,1
					c-0.3,0.3-0.6,0.7-0.8,1.1c-0.2,0.4-0.3,0.8-0.3,1.3H79c0-0.6,0.1-1.1,0.3-1.5c0.2-0.4,0.5-0.9,0.8-1.2c0.3-0.4,0.7-0.8,1-1.1
					c0.4-0.3,0.7-0.7,1-1s0.6-0.7,0.8-1c0.2-0.4,0.3-0.7,0.3-1.2c0-0.6-0.2-1.1-0.6-1.5c-0.4-0.4-1-0.5-1.7-0.5
					c-0.5,0-0.9,0.1-1.2,0.2s-0.6,0.3-0.9,0.6c-0.2,0.3-0.4,0.6-0.6,0.9c-0.1,0.3-0.2,0.7-0.3,1.2l-1.3-0.2c0.1-1.2,0.6-2.2,1.3-2.9
					c0.7-0.7,1.7-1.1,3-1.1c1.2,0,2.2,0.3,2.8,0.9C84.5,159.9,84.8,160.7,84.8,161.7z M81,172.9h-2v-2h2V172.9z"/>
			</g>
			<g>
				<path d="M70.9,190.7H41.4c-0.3,0-0.5-0.2-0.5-0.5s0.2-0.5,0.5-0.5h29.5c0.3,0,0.5,0.2,0.5,0.5S71.1,190.7,70.9,190.7z"/>
			</g>
			<g>
				<path d="M84.8,186.9c0,0.6-0.1,1.1-0.3,1.5c-0.2,0.4-0.5,0.8-0.8,1.2c-0.3,0.4-0.7,0.7-1,1c-0.4,0.3-0.7,0.6-1,1
					c-0.3,0.3-0.6,0.7-0.8,1.1c-0.2,0.4-0.3,0.8-0.3,1.3H79c0-0.6,0.1-1.1,0.3-1.5c0.2-0.4,0.5-0.9,0.8-1.2c0.3-0.4,0.7-0.8,1-1.1
					s0.7-0.7,1-1s0.6-0.7,0.8-1c0.2-0.4,0.3-0.7,0.3-1.2c0-0.6-0.2-1.1-0.6-1.5c-0.4-0.4-1-0.5-1.7-0.5c-0.5,0-0.9,0.1-1.2,0.2
					c-0.3,0.1-0.6,0.3-0.9,0.6c-0.2,0.3-0.4,0.6-0.6,0.9c-0.1,0.3-0.2,0.7-0.3,1.2l-1.3-0.2c0.1-1.2,0.6-2.2,1.3-2.9
					c0.7-0.7,1.7-1.1,3-1.1c1.2,0,2.2,0.3,2.8,0.9C84.5,185.1,84.8,185.9,84.8,186.9z M81,198h-2v-2h2V198z"/>
			</g>
		</g>
	</g>
</g>
</svg>
