<svg xmlns="http://www.w3.org/2000/svg" width="59" height="74" viewBox="0 0 59 74">
  <g fill="none">
    <g fill="#FFF" transform="translate(0 1)">
      <path d="M26.7,55.8 L4.4,55.8 C2.3,55.8 0.6,54.1 0.6,52 L0.6,3.9 C0.6,1.8 2.3,0.1 4.4,0.1 L26.7,0.1 C28.8,0.1 30.5,1.8 30.5,3.9 L30.5,52 C30.5,54.1 28.8,55.8 26.7,55.8 Z"/>
      <path d="M20.6,4.7 L10.5,4.7 C9.8,4.7 9.1,4.3 8.9,3.6 L7.5,0.1 L23.7,0.1 L22.3,3.6 C22,4.3 21.4,4.7 20.6,4.7 Z"/>
    </g>
    <path fill="#27B1F1" d="M54.4,28.9 L43.4,28.9 C40.9,28.9 38.8,26.8 38.8,24.3 L38.8,10.3 C38.8,7.8 40.9,5.7 43.4,5.7 L54.4,5.7 C56.9,5.7 59,7.8 59,10.3 L59,24.4 C59,26.9 56.9,28.9 54.4,28.9 Z"/>
    <path fill="#27C79D" d="M48.9 65.1C48.6 65.1 48.4 64.9 48.4 64.6L48.4 41.2C48.4 40.9 48.6 40.7 48.9 40.7 49.2 40.7 49.4 40.9 49.4 41.2L49.4 64.6C49.4 64.9 49.2 65.1 48.9 65.1zM40.7 73.3L23.7 73.3C18.9 73.3 15 69.4 15 64.6L15 60.4C15 60.1 15.2 59.9 15.5 59.9 15.8 59.9 16 60.1 16 60.4L16 64.6C16 68.8 19.4 72.3 23.7 72.3L40.7 72.3C41 72.3 41.2 72.5 41.2 72.8 41.2 73.1 41 73.3 40.7 73.3z"/>
    <path fill="#27C79D" d="M40.7,73.3 C35.9,73.3 32,69.4 32,64.6 C32,59.8 35.9,55.9 40.7,55.9 C45.5,55.9 49.4,59.8 49.4,64.6 C49.4,69.4 45.5,73.3 40.7,73.3 Z M40.7,57 C36.5,57 33,60.4 33,64.7 C33,69 36.4,72.4 40.7,72.4 C45,72.4 48.4,69 48.4,64.7 C48.4,60.4 45,57 40.7,57 Z"/>
    <polygon fill="#000" points="13.5 56.8 17.7 56.8 17.7 61.7 13.5 61.7"/>
    <path fill="#000" d="M26.7,0.6 L4.4,0.6 C2,0.6 0.1,2.5 0.1,4.9 L0.1,53 C0.1,55.4 2,57.3 4.4,57.3 L26.7,57.3 C29.1,57.3 31,55.4 31,53 L31,4.9 C31,2.6 29.1,0.6 26.7,0.6 Z M30,53 C30,54.8 28.5,56.3 26.7,56.3 L4.4,56.3 C2.6,56.3 1.1,54.8 1.1,53 L1.1,4.9 C1.1,3.1 2.6,1.6 4.4,1.6 L7.7,1.6 L8.9,4.6 C9.2,5.3 9.8,5.7 10.5,5.7 L20.6,5.7 C21.3,5.7 22,5.3 22.2,4.6 L23.4,1.6 L26.7,1.6 C28.5,1.6 30,3.1 30,4.9 L30,53 Z"/>
    <path fill="#FFF" d="M54 9.5C51.9 9.5 50.3 11.2 50.3 13.2L50.3 25.1 52.7 25.1 52.7 16.7C53.1 16.8 53.5 16.9 54 16.9 55.2 16.9 56.2 16.3 56.9 15.5L56.9 10.9C56.2 10.1 55.2 9.5 54 9.5zM44.1 9.5C46.2 9.5 47.8 11.2 47.8 13.2L47.8 25.1 45.4 25.1 45.4 16.7C45 16.8 44.6 16.9 44.1 16.9 42.9 16.9 41.9 16.3 41.2 15.5L41.2 10.9C41.8 10.1 42.9 9.5 44.1 9.5z"/>
    <polygon fill="#000" points="50.9 38 50.9 34.4 46.8 34.4 46.8 38 45.4 38 45.4 46.1 52.4 46.1 52.4 38"/>
    <polygon fill="#27C79D" points="26.2 26.9 16 26.9 16 16.9 5 31.6 14.5 31.6 14.5 40.9"/>
  </g>
</svg>
